Manipulação de dados | R para análise de dados
…
library(readxl)

tab_ifc <- read_excel("input/jpf_ifc_ms.xlsx")

tab_ifc

## # A tibble: 70,916 × 8
##    matgen  indice_sitio imatcc   dap altura altura_dom area_basal ncovas_viva
##    <chr>          <dbl>  <dbl> <dbl>  <dbl>      <dbl>      <dbl>       <dbl>
##  1 ARA6084         25.3   17.5 10.7    12.8       13.8       8.45         900
##  2 ARA6084         24.8   13.7  9.99   12.1       13.2       6.98         850
##  3 VT01            28.2   29.5 11.7    17.0       18.6      11.9         1100
##  4 VT01            27.8   29.7 11.3    16.4       18.0      12.3         1150
##  5 VT01            28.5   39.4 16.0    26.0       28.8      24.0         1175
##  6 VT01            31.6   44.2 17.2    28.5       31.8      24.4         1025
##  7 VT01            26.9   33.5 13.8    21.3       23.4      17.7         1150
##  8 VT01            29.3   39.8 17.3    27.0       29.6      23.4          975
##  9 IPB22           26.9   26.4 14.5    23.7       25.9      15.7          925
## 10 IPB22           28.7   29.8 12.9    22.6       25.6      14.8         1075
## # ℹ 70,906 more rows
…
Qual o lucro médio dos filmes?

Nosso objetivo agora é calcular o lucro médio dos filmes. Primeiro vamos criar uma coluna e calcular o lucro de cada filme.

tab_ifc_modificado <- mutate(tab_ifc, vol_individual = pi * dap^2 * 1/4000 * altura * 0.5)
tab_ifc_modificado

## # A tibble: 70,916 × 9
##    matgen  indice_sitio imatcc   dap altura altura_dom area_basal ncovas_viva
##    <chr>          <dbl>  <dbl> <dbl>  <dbl>      <dbl>      <dbl>       <dbl>
##  1 ARA6084         25.3   17.5 10.7    12.8       13.8       8.45         900
##  2 ARA6084         24.8   13.7  9.99   12.1       13.2       6.98         850
##  3 VT01            28.2   29.5 11.7    17.0       18.6      11.9         1100
##  4 VT01            27.8   29.7 11.3    16.4       18.0      12.3         1150
##  5 VT01            28.5   39.4 16.0    26.0       28.8      24.0         1175
##  6 VT01            31.6   44.2 17.2    28.5       31.8      24.4         1025
##  7 VT01            26.9   33.5 13.8    21.3       23.4      17.7         1150
##  8 VT01            29.3   39.8 17.3    27.0       29.6      23.4          975
##  9 IPB22           26.9   26.4 14.5    23.7       25.9      15.7          925
## 10 IPB22           28.7   29.8 12.9    22.6       25.6      14.8         1075
## # ℹ 70,906 more rows
## # ℹ 1 more variable: vol_individual <dbl>
…
A manipulação de dados é, na maioria das vezes, realizado com data.frames e por isso iremos ver as principais funções que lidam com essa estrutura de forma rápida e prática.

O pacote dplyr é hoje um dos pacotes mais utilizados para esta finalidade. Ele disponibiliza diversas funções que são “equivalentes” às funções básicas do R, mas como melhorias que nos poupam tempo e deixam o código muito mais fácil de interpretar.

Como exemplo, vamos realizar uma análise exploratória dos dados de um inventário na floresta amazônica.

library(tidyverse)
library(readxl)

tab_clima <- read_excel("input/jpf_clima.xlsx")

tab_clima

## # A tibble: 3,648 × 11
##    chave      site    ano   mes   seq    nd   doy   lon   lat  tmed   ppt
##    <chr>      <chr> <dbl> <dbl> <dbl> <dbl> <dbl> <dbl> <dbl> <dbl> <dbl>
##  1 ribas 2005 ribas  2005     1     1    31    15 -53.8 -20.5  25.2 325. 
##  2 ribas 2005 ribas  2005     2     2    28    46 -53.8 -20.5  25.6  83.3
##  3 ribas 2005 ribas  2005     3     3    31    74 -53.8 -20.5  25.7 117. 
##  4 ribas 2005 ribas  2005     4     4    30   105 -53.8 -20.5  24.7  84.3
##  5 ribas 2005 ribas  2005     5     5    31   135 -53.8 -20.5  21.1 104. 
##  6 ribas 2005 ribas  2005     6     6    30   166 -53.8 -20.5  20.1 114. 
##  7 ribas 2005 ribas  2005     7     7    31   196 -53.8 -20.5  17.4  21.8
##  8 ribas 2005 ribas  2005     8     8    31   227 -53.8 -20.5  21.8  10.7
##  9 ribas 2005 ribas  2005     9     9    30   258 -53.8 -20.5  22.0 133. 
## 10 ribas 2005 ribas  2005    10    10    31   288 -53.8 -20.5  25.4 166. 
## # ℹ 3,638 more rows
…
filter(tab_clima, tmed > 32 & ppt < 10)

## # A tibble: 3 × 11
##   chave         site       ano   mes   seq    nd   doy   lon   lat  tmed   ppt
##   <chr>         <chr>    <dbl> <dbl> <dbl> <dbl> <dbl> <dbl> <dbl> <dbl> <dbl>
## 1 estreito 2015 estreito  2015     9   129    30   258 -47.5 -6.58  32.9  2.72
## 2 estreito 2019 estreito  2019     9   177    30   258 -47.5 -6.58  32.7  4.85
## 3 estreito 2020 estreito  2020     9   189    30   259 -47.5 -6.58  32.6  6.12

filter(tab_clima, tmed > 32 | ppt > 400)

## # A tibble: 28 × 11
##    chave           site    ano   mes   seq    nd   doy   lon    lat  tmed    ppt
##    <chr>           <chr> <dbl> <dbl> <dbl> <dbl> <dbl> <dbl>  <dbl> <dbl>  <dbl>
##  1 ribas 2023      ribas  2023    12   228    31   349 -53.8 -20.5   32.0  30.4 
##  2 tres_lagoas 20… tres…  2007     1    25    31    15 -51.7 -20.8   25.9 412.  
##  3 tres_lagoas 20… tres…  2023    12   228    31   349 -51.7 -20.8   32.9  13.2 
##  4 acailandia 2008 acai…  2008     3    39    31    75 -47.5  -4.98  24.3 444.  
##  5 acailandia 2023 acai…  2023    11   227    30   319 -47.5  -4.98  27.7 536.  
##  6 estreito 2005   estr…  2005    10    10    31   288 -47.5  -6.58  32.3  22.4 
##  7 estreito 2015   estr…  2015     9   129    30   258 -47.5  -6.58  32.9   2.72
##  8 estreito 2015   estr…  2015    10   130    31   288 -47.5  -6.58  32.9  43.9 
##  9 estreito 2017   estr…  2017    10   154    31   288 -47.5  -6.58  32.6  68.5 
## 10 estreito 2019   estr…  2019     9   177    30   258 -47.5  -6.58  32.7   4.85
## # ℹ 18 more rows

filter(tab_clima, site == "ribas")

## # A tibble: 228 × 11
##    chave      site    ano   mes   seq    nd   doy   lon   lat  tmed   ppt
##    <chr>      <chr> <dbl> <dbl> <dbl> <dbl> <dbl> <dbl> <dbl> <dbl> <dbl>
##  1 ribas 2005 ribas  2005     1     1    31    15 -53.8 -20.5  25.2 325. 
##  2 ribas 2005 ribas  2005     2     2    28    46 -53.8 -20.5  25.6  83.3
##  3 ribas 2005 ribas  2005     3     3    31    74 -53.8 -20.5  25.7 117. 
##  4 ribas 2005 ribas  2005     4     4    30   105 -53.8 -20.5  24.7  84.3
##  5 ribas 2005 ribas  2005     5     5    31   135 -53.8 -20.5  21.1 104. 
##  6 ribas 2005 ribas  2005     6     6    30   166 -53.8 -20.5  20.1 114. 
##  7 ribas 2005 ribas  2005     7     7    31   196 -53.8 -20.5  17.4  21.8
##  8 ribas 2005 ribas  2005     8     8    31   227 -53.8 -20.5  21.8  10.7
##  9 ribas 2005 ribas  2005     9     9    30   258 -53.8 -20.5  22.0 133. 
## 10 ribas 2005 ribas  2005    10    10    31   288 -53.8 -20.5  25.4 166. 
## # ℹ 218 more rows

filter(tab_clima, site %in% c("ribas", "tres_lagoas"))

## # A tibble: 456 × 11
##    chave      site    ano   mes   seq    nd   doy   lon   lat  tmed   ppt
##    <chr>      <chr> <dbl> <dbl> <dbl> <dbl> <dbl> <dbl> <dbl> <dbl> <dbl>
##  1 ribas 2005 ribas  2005     1     1    31    15 -53.8 -20.5  25.2 325. 
##  2 ribas 2005 ribas  2005     2     2    28    46 -53.8 -20.5  25.6  83.3
##  3 ribas 2005 ribas  2005     3     3    31    74 -53.8 -20.5  25.7 117. 
##  4 ribas 2005 ribas  2005     4     4    30   105 -53.8 -20.5  24.7  84.3
##  5 ribas 2005 ribas  2005     5     5    31   135 -53.8 -20.5  21.1 104. 
##  6 ribas 2005 ribas  2005     6     6    30   166 -53.8 -20.5  20.1 114. 
##  7 ribas 2005 ribas  2005     7     7    31   196 -53.8 -20.5  17.4  21.8
##  8 ribas 2005 ribas  2005     8     8    31   227 -53.8 -20.5  21.8  10.7
##  9 ribas 2005 ribas  2005     9     9    30   258 -53.8 -20.5  22.0 133. 
## 10 ribas 2005 ribas  2005    10    10    31   288 -53.8 -20.5  25.4 166. 
## # ℹ 446 more rows

Arrange

Para ordenar as colunas, podemos usar a função arrange(). A hierarquia é dada pela sequência dos fatores que são adicionados como argumentos da função.

arrange(tab_clima, tmed)

## # A tibble: 3,648 × 11
##    chave             site    ano   mes   seq    nd   doy   lon   lat  tmed   ppt
##    <chr>             <chr> <dbl> <dbl> <dbl> <dbl> <dbl> <dbl> <dbl> <dbl> <dbl>
##  1 itarare 2016      itar…  2016     6   138    30   167 -49.3 -24.1  13.4  97.2
##  2 itarare 2009      itar…  2009     6    54    30   166 -49.3 -24.1  13.7  84.6
##  3 itarare 2011      itar…  2011     6    78    30   166 -49.3 -24.1  13.7  93.1
##  4 itarare 2021      itar…  2021     7   199    31   196 -49.3 -24.1  13.8  37.8
##  5 itarare 2007      itar…  2007     7    31    31   196 -49.3 -24.1  13.9 194. 
##  6 sao_jose_campos … sao_…  2009     6    54    30   166 -45.9 -23.2  14.1  47.7
##  7 itapetininga 2009 itap…  2009     6    54    30   166 -48.0 -23.6  14.2  70.8
##  8 avare 2009        avare  2009     6    54    30   166 -48.9 -23.1  14.3  71.7
##  9 itapetininga 2016 itap…  2016     6   138    30   167 -48.0 -23.6  14.3 120. 
## 10 avare 2011        avare  2011     6    78    30   166 -48.9 -23.1  14.4  36  
## # ℹ 3,638 more rows

arrange(tab_clima, -tmed)

## # A tibble: 3,648 × 11
##    chave            site    ano   mes   seq    nd   doy   lon    lat  tmed   ppt
##    <chr>            <chr> <dbl> <dbl> <dbl> <dbl> <dbl> <dbl>  <dbl> <dbl> <dbl>
##  1 estreito 2015    estr…  2015     9   129    30   258 -47.5  -6.58  32.9  2.72
##  2 tres_lagoas 2023 tres…  2023    12   228    31   349 -51.7 -20.8   32.9 13.2 
##  3 estreito 2015    estr…  2015    10   130    31   288 -47.5  -6.58  32.9 43.9 
##  4 estreito 2019    estr…  2019     9   177    30   258 -47.5  -6.58  32.7  4.85
##  5 estreito 2020    estr…  2020     9   189    30   259 -47.5  -6.58  32.6  6.12
##  6 estreito 2017    estr…  2017    10   154    31   288 -47.5  -6.58  32.6 68.5 
##  7 estreito 2005    estr…  2005    10    10    31   288 -47.5  -6.58  32.3 22.4 
##  8 ribas 2023       ribas  2023    12   228    31   349 -53.8 -20.5   32.0 30.4 
##  9 acailandia 2015  acai…  2015    10   130    31   288 -47.5  -4.98  31.9 28.7 
## 10 paragominas 2015 para…  2015    10   130    31   288 -47.4  -3.03  31.9 17.7 
## # ℹ 3,638 more rows

Select

A função select() auxilia-nos na seleção de variáveis (colunas).

select(tab_clima, site, ano, mes, ppt)

## # A tibble: 3,648 × 4
##    site    ano   mes   ppt
##    <chr> <dbl> <dbl> <dbl>
##  1 ribas  2005     1 325. 
##  2 ribas  2005     2  83.3
##  3 ribas  2005     3 117. 
##  4 ribas  2005     4  84.3
##  5 ribas  2005     5 104. 
##  6 ribas  2005     6 114. 
##  7 ribas  2005     7  21.8
##  8 ribas  2005     8  10.7
##  9 ribas  2005     9 133. 
## 10 ribas  2005    10 166. 
## # ℹ 3,638 more rows

select(tab_clima, site:doy)

## # A tibble: 3,648 × 6
##    site    ano   mes   seq    nd   doy
##    <chr> <dbl> <dbl> <dbl> <dbl> <dbl>
##  1 ribas  2005     1     1    31    15
##  2 ribas  2005     2     2    28    46
##  3 ribas  2005     3     3    31    74
##  4 ribas  2005     4     4    30   105
##  5 ribas  2005     5     5    31   135
##  6 ribas  2005     6     6    30   166
##  7 ribas  2005     7     7    31   196
##  8 ribas  2005     8     8    31   227
##  9 ribas  2005     9     9    30   258
## 10 ribas  2005    10    10    31   288
## # ℹ 3,638 more rows

select(tab_clima, -(seq:lat))

## # A tibble: 3,648 × 6
##    chave      site    ano   mes  tmed   ppt
##    <chr>      <chr> <dbl> <dbl> <dbl> <dbl>
##  1 ribas 2005 ribas  2005     1  25.2 325. 
##  2 ribas 2005 ribas  2005     2  25.6  83.3
##  3 ribas 2005 ribas  2005     3  25.7 117. 
##  4 ribas 2005 ribas  2005     4  24.7  84.3
##  5 ribas 2005 ribas  2005     5  21.1 104. 
##  6 ribas 2005 ribas  2005     6  20.1 114. 
##  7 ribas 2005 ribas  2005     7  17.4  21.8
##  8 ribas 2005 ribas  2005     8  21.8  10.7
##  9 ribas 2005 ribas  2005     9  22.0 133. 
## 10 ribas 2005 ribas  2005    10  25.4 166. 
## # ℹ 3,638 more rows

Mutate

Para criar novas variáveis, podemos usar a função mutate(). Um diferencial dessa função em relação à função base do R, é que podemos utilizar variáveis criadas dentro do próprio comando.

mutate(
  tab_clima,
  temp_otima = tmed >= 18 & tmed <= 22
)

## # A tibble: 3,648 × 12
##    chave  site    ano   mes   seq    nd   doy   lon   lat  tmed   ppt temp_otima
##    <chr>  <chr> <dbl> <dbl> <dbl> <dbl> <dbl> <dbl> <dbl> <dbl> <dbl> <lgl>     
##  1 ribas… ribas  2005     1     1    31    15 -53.8 -20.5  25.2 325.  FALSE     
##  2 ribas… ribas  2005     2     2    28    46 -53.8 -20.5  25.6  83.3 FALSE     
##  3 ribas… ribas  2005     3     3    31    74 -53.8 -20.5  25.7 117.  FALSE     
##  4 ribas… ribas  2005     4     4    30   105 -53.8 -20.5  24.7  84.3 FALSE     
##  5 ribas… ribas  2005     5     5    31   135 -53.8 -20.5  21.1 104.  TRUE      
##  6 ribas… ribas  2005     6     6    30   166 -53.8 -20.5  20.1 114.  TRUE      
##  7 ribas… ribas  2005     7     7    31   196 -53.8 -20.5  17.4  21.8 FALSE     
##  8 ribas… ribas  2005     8     8    31   227 -53.8 -20.5  21.8  10.7 TRUE      
##  9 ribas… ribas  2005     9     9    30   258 -53.8 -20.5  22.0 133.  TRUE      
## 10 ribas… ribas  2005    10    10    31   288 -53.8 -20.5  25.4 166.  FALSE     
## # ℹ 3,638 more rows
…
tab_clima_agrupado_site_ano <- group_by(tab_clima, site, ano)

tab_clima_site_ano <- summarise(
  tab_clima_agrupado_site_ano,
  tmed_anual = mean(tmed),
  ppt_anual = sum(ppt)
)

## `summarise()` has grouped output by
## 'site'. You can override using the
## `.groups` argument.

tab_clima_site_ano 

## # A tibble: 304 × 4
## # Groups:   site [16]
##    site         ano tmed_anual ppt_anual
##    <chr>      <dbl>      <dbl>     <dbl>
##  1 acailandia  2005       27.3     1136.
##  2 acailandia  2006       25.2     1930.
##  3 acailandia  2007       27.1      937.
##  4 acailandia  2008       25.6     1842.
##  5 acailandia  2009       25.4     1782.
##  6 acailandia  2010       26.5     1557.
##  7 acailandia  2011       25.4     1655.
##  8 acailandia  2012       26.5     1259.
##  9 acailandia  2013       26.2     1417.
## 10 acailandia  2014       27.0      993.
## # ℹ 294 more rows
…
