…
(@) **Faça um join entre a tabela `gapminder` e `continents`, onde `gapminder` será a tabela de referência. Salve essa operação em um objeto chamado `gap_cont`.**


```
#> # A tibble: 1,704 × 9
#>    country     continent  year lifeExp      pop gdpPercap area_km2 population
#>    <fct>       <chr>     <int>   <dbl>    <int>     <dbl>    <dbl>      <dbl>
#>  1 Afghanistan Asia       1952    28.8  8425333      779. 43820000 4164252000
#>  2 Afghanistan Asia       1957    30.3  9240934      821. 43820000 4164252000
#>  3 Afghanistan Asia       1962    32.0 10267083      853. 43820000 4164252000
#>  4 Afghanistan Asia       1967    34.0 11537966      836. 43820000 4164252000
#>  5 Afghanistan Asia       1972    36.1 13079460      740. 43820000 4164252000
#>  6 Afghanistan Asia       1977    38.4 14880372      786. 43820000 4164252000
#>  7 Afghanistan Asia       1982    39.9 12881816      978. 43820000 4164252000
#>  8 Afghanistan Asia       1987    40.8 13867957      852. 43820000 4164252000
#>  9 Afghanistan Asia       1992    41.7 16317921      649. 43820000 4164252000
#> 10 Afghanistan Asia       1997    41.8 22227415      635. 43820000 4164252000
#> # ℹ 1,694 more rows
#> # ℹ 1 more variable: percent_total_pop <dbl>
```
<br>


(@) **Com base no objeto `gap_cont`, filtre as informações do continente `Oceania`.**


```
#> # A tibble: 24 × 9
#>    country   continent  year lifeExp      pop gdpPercap area_km2 population
#>    <fct>     <chr>     <int>   <dbl>    <int>     <dbl>    <dbl>      <dbl>
#>  1 Australia Oceania    1952    69.1  8691212    10040.  9008500   29127000
#>  2 Australia Oceania    1957    70.3  9712569    10950.  9008500   29127000
#>  3 Australia Oceania    1962    70.9 10794968    12217.  9008500   29127000
#>  4 Australia Oceania    1967    71.1 11872264    14526.  9008500   29127000
#>  5 Australia Oceania    1972    71.9 13177000    16789.  9008500   29127000
#>  6 Australia Oceania    1977    73.5 14074100    18334.  9008500   29127000
#>  7 Australia Oceania    1982    74.7 15184200    19477.  9008500   29127000
#>  8 Australia Oceania    1987    76.3 16257249    21889.  9008500   29127000
#>  9 Australia Oceania    1992    77.6 17481977    23425.  9008500   29127000
#> 10 Australia Oceania    1997    78.8 18565243    26998.  9008500   29127000
#> # ℹ 14 more rows
#> # ℹ 1 more variable: percent_total_pop <dbl>
```
…
